pmau_test/work/sh2_pmau_tb.vcd
$date
  Fri May  2 12:48:47 2025
$end
$version
  GHDL v0
$end
$timescale
  1 fs
$end
$scope module standard $end
$upscope $end
$scope module env $end
$upscope $end
$scope module textio $end
$upscope $end
$scope module std_logic_1164 $end
$upscope $end
$scope module numeric_std $end
$upscope $end
$scope module memunitconstants $end
$upscope $end
$scope module sh2constants $end
$upscope $end
$scope module array_type_pkg $end
$upscope $end
$scope module sh2pmauconstants $end
$upscope $end
$scope module math_real $end
$upscope $end
$scope module utils $end
$upscope $end
$scope module sh2utils $end
$upscope $end
$scope module sh2_pmau_tb $end
$var reg 32 ! regin_tb[31:0] $end
$var reg 32 " prin_tb[31:0] $end
$var reg 1 # prwriteen_tb $end
$var reg 8 $ off8_tb[7:0] $end
$var reg 12 % off12_tb[11:0] $end
$var reg 3 & pcaddrmode_tb[2:0] $end
$var reg 1 ' clk_tb $end
$var reg 32 ( pcout_tb[31:0] $end
$var reg 32 ) prout_tb[31:0] $end
$scope module uut $end
$var reg 32 * regin[31:0] $end
$var reg 32 + prin[31:0] $end
$var reg 1 , prwriteen $end
$var reg 8 - off8[7:0] $end
$var reg 12 . off12[11:0] $end
$var reg 3 / pcaddrmode[2:0] $end
$var reg 1 0 clk $end
$var reg 32 1 pcout[31:0] $end
$var reg 32 2 prout[31:0] $end
$comment pmauaddrsrc is not handled $end
$var integer 32 3 pmausrcsel $end
$comment pmauaddroff is not handled $end
$var integer 32 4 pmauoffsetsel $end
$var reg 1 5 pmauincdecsel $end
$var integer 32 6 pmauincdecbit $end
$var reg 1 7 pmauprepostsel $end
$var reg 32 8 calculatedpc[31:0] $end
$var reg 32 9 incrementedpc[31:0] $end
$var reg 32 : prreg[31:0] $end
$var reg 32 ; pcreg[31:0] $end
$var reg 32 < pcmux[31:0] $end
$scope module sh2pmau_instance $end
$comment addrsrc is not handled $end
$var integer 32 = srcsel $end
$comment addroff is not handled $end
$var integer 32 > offsetsel $end
$var reg 1 ? incdecsel $end
$var integer 32 @ incdecbit $end
$var reg 1 A prepostsel $end
$var reg 32 B address[31:0] $end
$var reg 32 C addrsrcout[31:0] $end
$var reg 33 D acarry[32:0] $end
$var reg 33 E idcarry[32:0] $end
$var reg 32 F srcaddr[31:0] $end
$var reg 32 G incdecin[31:0] $end
$var reg 32 H outsrcaddr[31:0] $end
$var reg 32 I srcselmux[31:0] $end
$var reg 32 J addroffmux[31:0] $end
$scope module idin(0) $end
$scope module idin2 $end
$upscope $end
$upscope $end
$scope module idin(1) $end
$scope module idin2 $end
$upscope $end
$upscope $end
$scope module idin(2) $end
$scope module idin1 $end
$upscope $end
$upscope $end
$scope module idin(3) $end
$scope module idin1 $end
$upscope $end
$upscope $end
$scope module idin(4) $end
$scope module idin1 $end
$upscope $end
$upscope $end
$scope module idin(5) $end
$scope module idin1 $end
$upscope $end
$upscope $end
$scope module idin(6) $end
$scope module idin1 $end
$upscope $end
$upscope $end
$scope module idin(7) $end
$scope module idin1 $end
$upscope $end
$upscope $end
$scope module idin(8) $end
$scope module idin1 $end
$upscope $end
$upscope $end
$scope module idin(9) $end
$scope module idin1 $end
$upscope $end
$upscope $end
$scope module idin(10) $end
$scope module idin1 $end
$upscope $end
$upscope $end
$scope module idin(11) $end
$scope module idin1 $end
$upscope $end
$upscope $end
$scope module idin(12) $end
$scope module idin1 $end
$upscope $end
$upscope $end
$scope module idin(13) $end
$scope module idin1 $end
$upscope $end
$upscope $end
$scope module idin(14) $end
$scope module idin1 $end
$upscope $end
$upscope $end
$scope module idin(15) $end
$scope module idin1 $end
$upscope $end
$upscope $end
$scope module idin(16) $end
$scope module idin1 $end
$upscope $end
$upscope $end
$scope module idin(17) $end
$scope module idin1 $end
$upscope $end
$upscope $end
$scope module idin(18) $end
$scope module idin1 $end
$upscope $end
$upscope $end
$scope module idin(19) $end
$scope module idin1 $end
$upscope $end
$upscope $end
$scope module idin(20) $end
$scope module idin1 $end
$upscope $end
$upscope $end
$scope module idin(21) $end
$scope module idin1 $end
$upscope $end
$upscope $end
$scope module idin(22) $end
$scope module idin1 $end
$upscope $end
$upscope $end
$scope module idin(23) $end
$scope module idin1 $end
$upscope $end
$upscope $end
$scope module idin(24) $end
$scope module idin1 $end
$upscope $end
$upscope $end
$scope module idin(25) $end
$scope module idin1 $end
$upscope $end
$upscope $end
$scope module idin(26) $end
$scope module idin1 $end
$upscope $end
$upscope $end
$scope module idin(27) $end
$scope module idin1 $end
$upscope $end
$upscope $end
$scope module idin(28) $end
$scope module idin1 $end
$upscope $end
$upscope $end
$scope module idin(29) $end
$scope module idin1 $end
$upscope $end
$upscope $end
$scope module idin(30) $end
$scope module idin1 $end
$upscope $end
$upscope $end
$scope module idin(31) $end
$scope module idin1 $end
$upscope $end
$upscope $end
$scope module ida1(0) $end
$scope module idabx $end
$var reg 1 K a $end
$var reg 1 L b $end
$var reg 1 M ci $end
$var reg 1 N s $end
$var reg 1 O co $end
$upscope $end
$upscope $end
$scope module ida1(1) $end
$scope module idabx $end
$var reg 1 P a $end
$var reg 1 Q b $end
$var reg 1 R ci $end
$var reg 1 S s $end
$var reg 1 T co $end
$upscope $end
$upscope $end
$scope module ida1(2) $end
$scope module idabx $end
$var reg 1 U a $end
$var reg 1 V b $end
$var reg 1 W ci $end
$var reg 1 X s $end
$var reg 1 Y co $end
$upscope $end
$upscope $end
$scope module ida1(3) $end
$scope module idabx $end
$var reg 1 Z a $end
$var reg 1 [ b $end
$var reg 1 \ ci $end
$var reg 1 ] s $end
$var reg 1 ^ co $end
$upscope $end
$upscope $end
$scope module ida1(4) $end
$scope module idabx $end
$var reg 1 _ a $end
$var reg 1 ` b $end
$var reg 1 a ci $end
$var reg 1 b s $end
$var reg 1 c co $end
$upscope $end
$upscope $end
$scope module ida1(5) $end
$scope module idabx $end
$var reg 1 d a $end
$var reg 1 e b $end
$var reg 1 f ci $end
$var reg 1 g s $end
$var reg 1 h co $end
$upscope $end
$upscope $end
$scope module ida1(6) $end
$scope module idabx $end
$var reg 1 i a $end
$var reg 1 j b $end
$var reg 1 k ci $end
$var reg 1 l s $end
$var reg 1 m co $end
$upscope $end
$upscope $end
$scope module ida1(7) $end
$scope module idabx $end
$var reg 1 n a $end
$var reg 1 o b $end
$var reg 1 p ci $end
$var reg 1 q s $end
$var reg 1 r co $end
$upscope $end
$upscope $end
$scope module ida1(8) $end
$scope module idabx $end
$var reg 1 s a $end
$var reg 1 t b $end
$var reg 1 u ci $end
$var reg 1 v s $end
$var reg 1 w co $end
$upscope $end
$upscope $end
$scope module ida1(9) $end
$scope module idabx $end
$var reg 1 x a $end
$var reg 1 y b $end
$var reg 1 z ci $end
$var reg 1 { s $end
$var reg 1 | co $end
$upscope $end
$upscope $end
$scope module ida1(10) $end
$scope module idabx $end
$var reg 1 } a $end
$var reg 1 !" b $end
$var reg 1 "" ci $end
$var reg 1 #" s $end
$var reg 1 $" co $end
$upscope $end
$upscope $end
$scope module ida1(11) $end
$scope module idabx $end
$var reg 1 %" a $end
$var reg 1 &" b $end
$var reg 1 '" ci $end
$var reg 1 (" s $end
$var reg 1 )" co $end
$upscope $end
$upscope $end
$scope module ida1(12) $end
$scope module idabx $end
$var reg 1 *" a $end
$var reg 1 +" b $end
$var reg 1 ," ci $end
$var reg 1 -" s $end
$var reg 1 ." co $end
$upscope $end
$upscope $end
$scope module ida1(13) $end
$scope module idabx $end
$var reg 1 /" a $end
$var reg 1 0" b $end
$var reg 1 1" ci $end
$var reg 1 2" s $end
$var reg 1 3" co $end
$upscope $end
$upscope $end
$scope module ida1(14) $end
$scope module idabx $end
$var reg 1 4" a $end
$var reg 1 5" b $end
$var reg 1 6" ci $end
$var reg 1 7" s $end
$var reg 1 8" co $end
$upscope $end
$upscope $end
$scope module ida1(15) $end
$scope module idabx $end
$var reg 1 9" a $end
$var reg 1 :" b $end
$var reg 1 ;" ci $end
$var reg 1 <" s $end
$var reg 1 =" co $end
$upscope $end
$upscope $end
$scope module ida1(16) $end
$scope module idabx $end
$var reg 1 >" a $end
$var reg 1 ?" b $end
$var reg 1 @" ci $end
$var reg 1 A" s $end
$var reg 1 B" co $end
$upscope $end
$upscope $end
$scope module ida1(17) $end
$scope module idabx $end
$var reg 1 C" a $end
$var reg 1 D" b $end
$var reg 1 E" ci $end
$var reg 1 F" s $end
$var reg 1 G" co $end
$upscope $end
$upscope $end
$scope module ida1(18) $end
$scope module idabx $end
$var reg 1 H" a $end
$var reg 1 I" b $end
$var reg 1 J" ci $end
$var reg 1 K" s $end
$var reg 1 L" co $end
$upscope $end
$upscope $end
$scope module ida1(19) $end
$scope module idabx $end
$var reg 1 M" a $end
$var reg 1 N" b $end
$var reg 1 O" ci $end
$var reg 1 P" s $end
$var reg 1 Q" co $end
$upscope $end
$upscope $end
$scope module ida1(20) $end
$scope module idabx $end
$var reg 1 R" a $end
$var reg 1 S" b $end
$var reg 1 T" ci $end
$var reg 1 U" s $end
$var reg 1 V" co $end
$upscope $end
$upscope $end
$scope module ida1(21) $end
$scope module idabx $end
$var reg 1 W" a $end
$var reg 1 X" b $end
$var reg 1 Y" ci $end
$var reg 1 Z" s $end
$var reg 1 [" co $end
$upscope $end
$upscope $end
$scope module ida1(22) $end
$scope module idabx $end
$var reg 1 \" a $end
$var reg 1 ]" b $end
$var reg 1 ^" ci $end
$var reg 1 _" s $end
$var reg 1 `" co $end
$upscope $end
$upscope $end
$scope module ida1(23) $end
$scope module idabx $end
$var reg 1 a" a $end
$var reg 1 b" b $end
$var reg 1 c" ci $end
$var reg 1 d" s $end
$var reg 1 e" co $end
$upscope $end
$upscope $end
$scope module ida1(24) $end
$scope module idabx $end
$var reg 1 f" a $end
$var reg 1 g" b $end
$var reg 1 h" ci $end
$var reg 1 i" s $end
$var reg 1 j" co $end
$upscope $end
$upscope $end
$scope module ida1(25) $end
$scope module idabx $end
$var reg 1 k" a $end
$var reg 1 l" b $end
$var reg 1 m" ci $end
$var reg 1 n" s $end
$var reg 1 o" co $end
$upscope $end
$upscope $end
$scope module ida1(26) $end
$scope module idabx $end
$var reg 1 p" a $end
$var reg 1 q" b $end
$var reg 1 r" ci $end
$var reg 1 s" s $end
$var reg 1 t" co $end
$upscope $end
$upscope $end
$scope module ida1(27) $end
$scope module idabx $end
$var reg 1 u" a $end
$var reg 1 v" b $end
$var reg 1 w" ci $end
$var reg 1 x" s $end
$var reg 1 y" co $end
$upscope $end
$upscope $end
$scope module ida1(28) $end
$scope module idabx $end
$var reg 1 z" a $end
$var reg 1 {" b $end
$var reg 1 |" ci $end
$var reg 1 }" s $end
$var reg 1 !# co $end
$upscope $end
$upscope $end
$scope module ida1(29) $end
$scope module idabx $end
$var reg 1 "# a $end
$var reg 1 ## b $end
$var reg 1 $# ci $end
$var reg 1 %# s $end
$var reg 1 &# co $end
$upscope $end
$upscope $end
$scope module ida1(30) $end
$scope module idabx $end
$var reg 1 '# a $end
$var reg 1 (# b $end
$var reg 1 )# ci $end
$var reg 1 *# s $end
$var reg 1 +# co $end
$upscope $end
$upscope $end
$scope module ida1(31) $end
$scope module idabx $end
$var reg 1 ,# a $end
$var reg 1 -# b $end
$var reg 1 .# ci $end
$var reg 1 /# s $end
$var reg 1 0# co $end
$upscope $end
$upscope $end
$scope module aa1(0) $end
$scope module aabx $end
$var reg 1 1# a $end
$var reg 1 2# b $end
$var reg 1 3# ci $end
$var reg 1 4# s $end
$var reg 1 5# co $end
$upscope $end
$upscope $end
$scope module aa1(1) $end
$scope module aabx $end
$var reg 1 6# a $end
$var reg 1 7# b $end
$var reg 1 8# ci $end
$var reg 1 9# s $end
$var reg 1 :# co $end
$upscope $end
$upscope $end
$scope module aa1(2) $end
$scope module aabx $end
$var reg 1 ;# a $end
$var reg 1 <# b $end
$var reg 1 =# ci $end
$var reg 1 ># s $end
$var reg 1 ?# co $end
$upscope $end
$upscope $end
$scope module aa1(3) $end
$scope module aabx $end
$var reg 1 @# a $end
$var reg 1 A# b $end
$var reg 1 B# ci $end
$var reg 1 C# s $end
$var reg 1 D# co $end
$upscope $end
$upscope $end
$scope module aa1(4) $end
$scope module aabx $end
$var reg 1 E# a $end
$var reg 1 F# b $end
$var reg 1 G# ci $end
$var reg 1 H# s $end
$var reg 1 I# co $end
$upscope $end
$upscope $end
$scope module aa1(5) $end
$scope module aabx $end
$var reg 1 J# a $end
$var reg 1 K# b $end
$var reg 1 L# ci $end
$var reg 1 M# s $end
$var reg 1 N# co $end
$upscope $end
$upscope $end
$scope module aa1(6) $end
$scope module aabx $end
$var reg 1 O# a $end
$var reg 1 P# b $end
$var reg 1 Q# ci $end
$var reg 1 R# s $end
$var reg 1 S# co $end
$upscope $end
$upscope $end
$scope module aa1(7) $end
$scope module aabx $end
$var reg 1 T# a $end
$var reg 1 U# b $end
$var reg 1 V# ci $end
$var reg 1 W# s $end
$var reg 1 X# co $end
$upscope $end
$upscope $end
$scope module aa1(8) $end
$scope module aabx $end
$var reg 1 Y# a $end
$var reg 1 Z# b $end
$var reg 1 [# ci $end
$var reg 1 \# s $end
$var reg 1 ]# co $end
$upscope $end
$upscope $end
$scope module aa1(9) $end
$scope module aabx $end
$var reg 1 ^# a $end
$var reg 1 _# b $end
$var reg 1 `# ci $end
$var reg 1 a# s $end
$var reg 1 b# co $end
$upscope $end
$upscope $end
$scope module aa1(10) $end
$scope module aabx $end
$var reg 1 c# a $end
$var reg 1 d# b $end
$var reg 1 e# ci $end
$var reg 1 f# s $end
$var reg 1 g# co $end
$upscope $end
$upscope $end
$scope module aa1(11) $end
$scope module aabx $end
$var reg 1 h# a $end
$var reg 1 i# b $end
$var reg 1 j# ci $end
$var reg 1 k# s $end
$var reg 1 l# co $end
$upscope $end
$upscope $end
$scope module aa1(12) $end
$scope module aabx $end
$var reg 1 m# a $end
$var reg 1 n# b $end
$var reg 1 o# ci $end
$var reg 1 p# s $end
$var reg 1 q# co $end
$upscope $end
$upscope $end
$scope module aa1(13) $end
$scope module aabx $end
$var reg 1 r# a $end
$var reg 1 s# b $end
$var reg 1 t# ci $end
$var reg 1 u# s $end
$var reg 1 v# co $end
$upscope $end
$upscope $end
$scope module aa1(14) $end
$scope module aabx $end
$var reg 1 w# a $end
$var reg 1 x# b $end
$var reg 1 y# ci $end
$var reg 1 z# s $end
$var reg 1 {# co $end
$upscope $end
$upscope $end
$scope module aa1(15) $end
$scope module aabx $end
$var reg 1 |# a $end
$var reg 1 }# b $end
$var reg 1 !$ ci $end
$var reg 1 "$ s $end
$var reg 1 #$ co $end
$upscope $end
$upscope $end
$scope module aa1(16) $end
$scope module aabx $end
$var reg 1 $$ a $end
$var reg 1 %$ b $end
$var reg 1 &$ ci $end
$var reg 1 '$ s $end
$var reg 1 ($ co $end
$upscope $end
$upscope $end
$scope module aa1(17) $end
$scope module aabx $end
$var reg 1 )$ a $end
$var reg 1 *$ b $end
$var reg 1 +$ ci $end
$var reg 1 ,$ s $end
$var reg 1 -$ co $end
$upscope $end
$upscope $end
$scope module aa1(18) $end
$scope module aabx $end
$var reg 1 .$ a $end
$var reg 1 /$ b $end
$var reg 1 0$ ci $end
$var reg 1 1$ s $end
$var reg 1 2$ co $end
$upscope $end
$upscope $end
$scope module aa1(19) $end
$scope module aabx $end
$var reg 1 3$ a $end
$var reg 1 4$ b $end
$var reg 1 5$ ci $end
$var reg 1 6$ s $end
$var reg 1 7$ co $end
$upscope $end
$upscope $end
$scope module aa1(20) $end
$scope module aabx $end
$var reg 1 8$ a $end
$var reg 1 9$ b $end
$var reg 1 :$ ci $end
$var reg 1 ;$ s $end
$var reg 1 <$ co $end
$upscope $end
$upscope $end
$scope module aa1(21) $end
$scope module aabx $end
$var reg 1 =$ a $end
$var reg 1 >$ b $end
$var reg 1 ?$ ci $end
$var reg 1 @$ s $end
$var reg 1 A$ co $end
$upscope $end
$upscope $end
$scope module aa1(22) $end
$scope module aabx $end
$var reg 1 B$ a $end
$var reg 1 C$ b $end
$var reg 1 D$ ci $end
$var reg 1 E$ s $end
$var reg 1 F$ co $end
$upscope $end
$upscope $end
$scope module aa1(23) $end
$scope module aabx $end
$var reg 1 G$ a $end
$var reg 1 H$ b $end
$var reg 1 I$ ci $end
$var reg 1 J$ s $end
$var reg 1 K$ co $end
$upscope $end
$upscope $end
$scope module aa1(24) $end
$scope module aabx $end
$var reg 1 L$ a $end
$var reg 1 M$ b $end
$var reg 1 N$ ci $end
$var reg 1 O$ s $end
$var reg 1 P$ co $end
$upscope $end
$upscope $end
$scope module aa1(25) $end
$scope module aabx $end
$var reg 1 Q$ a $end
$var reg 1 R$ b $end
$var reg 1 S$ ci $end
$var reg 1 T$ s $end
$var reg 1 U$ co $end
$upscope $end
$upscope $end
$scope module aa1(26) $end
$scope module aabx $end
$var reg 1 V$ a $end
$var reg 1 W$ b $end
$var reg 1 X$ ci $end
$var reg 1 Y$ s $end
$var reg 1 Z$ co $end
$upscope $end
$upscope $end
$scope module aa1(27) $end
$scope module aabx $end
$var reg 1 [$ a $end
$var reg 1 \$ b $end
$var reg 1 ]$ ci $end
$var reg 1 ^$ s $end
$var reg 1 _$ co $end
$upscope $end
$upscope $end
$scope module aa1(28) $end
$scope module aabx $end
$var reg 1 `$ a $end
$var reg 1 a$ b $end
$var reg 1 b$ ci $end
$var reg 1 c$ s $end
$var reg 1 d$ co $end
$upscope $end
$upscope $end
$scope module aa1(29) $end
$scope module aabx $end
$var reg 1 e$ a $end
$var reg 1 f$ b $end
$var reg 1 g$ ci $end
$var reg 1 h$ s $end
$var reg 1 i$ co $end
$upscope $end
$upscope $end
$scope module aa1(30) $end
$scope module aabx $end
$var reg 1 j$ a $end
$var reg 1 k$ b $end
$var reg 1 l$ ci $end
$var reg 1 m$ s $end
$var reg 1 n$ co $end
$upscope $end
$upscope $end
$scope module aa1(31) $end
$scope module aabx $end
$var reg 1 o$ a $end
$var reg 1 p$ b $end
$var reg 1 q$ ci $end
$var reg 1 r$ s $end
$var reg 1 s$ co $end
$upscope $end
$upscope $end
$upscope $end
$upscope $end
$upscope $end
$enddefinitions $end
#0
b11001111001101001010110100001101 !
b00000111111010000010111010010000 "
0#
b10101110 $
b001001100001 %
b100 &
1'
b11001111001101001010110100001101 (
bUUUUUUUUUUUUUUUUUUUUUUUUUUUUUUUU )
b11001111001101001010110100001101 *
b00000111111010000010111010010000 +
0,
b10101110 -
b001001100001 .
b100 /
10
b11001111001101001010110100001101 1
bUUUUUUUUUUUUUUUUUUUUUUUUUUUUUUUU 2
b10 3
b0 4
05
b1 6
17
b11001111001101001010110100001101 8
b11001111001101001010110100001111 9
bUUUUUUUUUUUUUUUUUUUUUUUUUUUUUUUU :
bUUUUUUUUUUUUUUUUUUUUUUUUUUUUUUUU ;
b11001111001101001010110100001101 <
b10 =
b0 >
0?
b1 @
1A
b11001111001101001010110100001101 B
b11001111001101001010110100001111 C
b000000000000000000000000000000000 D
b000000000000000000000000000000000 E
b11001111001101001010110100001101 F
b00000000000000000000000000000010 G
b11001111001101001010110100001111 H
b11001111001101001010110100001101 I
b00000000000000000000000000000000 J
1K
0L
0M
1N
0O
0P
1Q
0R
1S
0T
1U
0V
0W
1X
0Y
1Z
0[
0\
1]
0^
0_
0`
0a
0b
0c
0d
0e
0f
0g
0h
0i
0j
0k
0l
0m
0n
0o
0p
0q
0r
1s
0t
0u
1v
0w
0x
0y
0z
0{
0|
1}
0!"
0""
1#"
0$"
1%"
0&"
0'"
1("
0)"
0*"
0+"
0,"
0-"
0."
1/"
00"
01"
12"
03"
04"
05"
06"
07"
08"
19"
0:"
0;"
1<"
0="
0>"
0?"
0@"
0A"
0B"
0C"
0D"
0E"
0F"
0G"
1H"
0I"
0J"
1K"
0L"
0M"
0N"
0O"
0P"
0Q"
1R"
0S"
0T"
1U"
0V"
1W"
0X"
0Y"
1Z"
0["
0\"
0]"
0^"
0_"
0`"
0a"
0b"
0c"
0d"
0e"
1f"
0g"
0h"
1i"
0j"
1k"
0l"
0m"
1n"
0o"
1p"
0q"
0r"
1s"
0t"
1u"
0v"
0w"
1x"
0y"
0z"
0{"
0|"
0}"
0!#
0"#
0##
0$#
0%#
0&#
1'#
0(#
0)#
1*#
0+#
1,#
0-#
0.#
1/#
00#
11#
02#
03#
14#
05#
06#
07#
08#
09#
0:#
1;#
0<#
0=#
1>#
0?#
1@#
0A#
0B#
1C#
0D#
0E#
0F#
0G#
0H#
0I#
0J#
0K#
0L#
0M#
0N#
0O#
0P#
0Q#
0R#
0S#
0T#
0U#
0V#
0W#
0X#
1Y#
0Z#
0[#
1\#
0]#
0^#
0_#
0`#
0a#
0b#
1c#
0d#
0e#
1f#
0g#
1h#
0i#
0j#
1k#
0l#
0m#
0n#
0o#
0p#
0q#
1r#
0s#
0t#
1u#
0v#
0w#
0x#
0y#
0z#
0{#
1|#
0}#
0!$
1"$
0#$
0$$
0%$
0&$
0'$
0($
0)$
0*$
0+$
0,$
0-$
1.$
0/$
00$
11$
02$
03$
04$
05$
06$
07$
18$
09$
0:$
1;$
0<$
1=$
0>$
0?$
1@$
0A$
0B$
0C$
0D$
0E$
0F$
0G$
0H$
0I$
0J$
0K$
1L$
0M$
0N$
1O$
0P$
1Q$
0R$
0S$
1T$
0U$
1V$
0W$
0X$
1Y$
0Z$
1[$
0\$
0]$
1^$
0_$
0`$
0a$
0b$
0c$
0d$
0e$
0f$
0g$
0h$
0i$
1j$
0k$
0l$
1m$
0n$
1o$
0p$
0q$
1r$
0s$
#500000000
0'
00
#1000000000
b11011001001000010010000100110111 !
b11010000110000001111110011011101 "
b00000011 $
b111100011111 %
1'
b11011001001000010010000100110111 (
b11011001001000010010000100110111 *
b11010000110000001111110011011101 +
b00000011 -
b111100011111 .
10
b11011001001000010010000100110111 1
b11011001001000010010000100110111 8
b11011001001000010010000100111001 9
b11001111001101001010110100001101 ;
b11011001001000010010000100110111 <
b11011001001000010010000100110111 B
b11011001001000010010000100111001 C
b000000000000000000000000000001100 E
b11011001001000010010000100110111 F
b11011001001000010010000100111001 H
b11011001001000010010000100110111 I
1P
0S
1T
1W
0X
1Y
0Z
1\
1]
1_
1b
1d
1g
0}
0#"
0%"
0("
09"
0<"
1>"
1A"
0H"
0K"
0R"
0U"
0k"
0n"
0p"
0s"
1z"
1}"
16#
19#
0@#
0C#
1E#
1H#
1J#
1M#
0c#
0f#
0h#
0k#
0|#
0"$
1$$
1'$
0.$
01$
08$
0;$
0Q$
0T$
0V$
0Y$
1`$
1c$
#1500000000
0'
00
#2000000000
b11111110001010100111101011101011 !
b10101000100011001111011010011100 "
b01100000 $
b011111001110 %
1'
b11111110001010100111101011101011 (
b11111110001010100111101011101011 *
b10101000100011001111011010011100 +
b01100000 -
b011111001110 .
10
b11111110001010100111101011101011 1
b11111110001010100111101011101011 8
b11111110001010100111101011101101 9
b11011001001000010010000100110111 ;
b11111110001010100111101011101011 <
b11111110001010100111101011101011 B
b11111110001010100111101011101101 C
b000000000000000000000000000000100 E
b11111110001010100111101011101011 F
b11111110001010100111101011101101 H
b11111110001010100111101011101011 I
0U
1X
0Y
1Z
0\
1]
0^
0_
0a
0b
1i
1l
1n
1q
0s
0v
1x
1{
1%"
1("
1*"
1-"
14"
17"
0>"
0A"
1C"
1F"
1M"
1P"
0f"
0i"
1k"
1n"
1p"
1s"
1"#
1%#
0;#
0>#
1@#
1C#
0E#
0H#
1O#
1R#
1T#
1W#
0Y#
0\#
1^#
1a#
1h#
1k#
1m#
1p#
1w#
1z#
0$$
0'$
1)$
1,$
13$
16$
0L$
0O$
1Q$
1T$
1V$
1Y$
1e$
1h$
#2500000000
0'
00
#3000000000
b11011110001010110101100110110011 !
b10011000011111101001111111011001 "
b10110110 $
b100110001001 %
1'
b11011110001010110101100110110011 (
b11011110001010110101100110110011 *
b10011000011111101001111111011001 +
b10110110 -
b100110001001 .
10
b11011110001010110101100110110011 1
b11011110001010110101100110110011 8
b11011110001010110101100110110101 9
b11111110001010100111101011101011 ;
b11011110001010110101100110110011 <
b11011110001010110101100110110011 B
b11011110001010110101100110110101 C
b11011110001010110101100110110011 F
b11011110001010110101100110110101 H
b11011110001010110101100110110011 I
0Z
0]
1_
1b
0i
0l
1s
1v
0x
0{
0/"
02"
1>"
1A"
0"#
0%#
0@#
0C#
1E#
1H#
0O#
0R#
1Y#
1\#
0^#
0a#
0r#
0u#
1$$
1'$
0e$
0h$
#3500000000
0'
00
#4000000000
b11000100110011110001111110111010 !
b11000011001011110001011001011111 "
b00000000 $
b101101010000 %
1'
b11000100110011110001111110111010 (
b11000100110011110001111110111010 *
b11000011001011110001011001011111 +
b00000000 -
b101101010000 .
10
b11000100110011110001111110111010 1
b11000100110011110001111110111010 8
b11000100110011110001111110111100 9
b11011110001010110101100110110011 ;
b11000100110011110001111110111010 <
b11000100110011110001111110111010 B
b11000100110011110001111110111100 C
b11000100110011110001111110111010 F
b11000100110011110001111110111100 H
b11000100110011110001111110111010 I
0K
0N
1Z
1]
1x
1{
1}
1#"
04"
07"
1H"
1K"
0W"
0Z"
1\"
1_"
1a"
1d"
0k"
0n"
0u"
0x"
0z"
0}"
01#
04#
1@#
1C#
1^#
1a#
1c#
1f#
0w#
0z#
1.$
11$
0=$
0@$
1B$
1E$
1G$
1J$
0Q$
0T$
0[$
0^$
0`$
0c$
#4500000000
0'
00
#5000000000
b11110100001001100100001111010101 !
b11101000000000111111111001011100 "
b01101011 $
b100110001100 %
1'
b11110100001001100100001111010101 (
b11110100001001100100001111010101 *
b11101000000000111111111001011100 +
b01101011 -
b100110001100 .
10
b11110100001001100100001111010101 1
b11110100001001100100001111010101 8
b11110100001001100100001111010111 9
b11000100110011110001111110111010 ;
b11110100001001100100001111010101 <
b11110100001001100100001111010101 B
b11110100001001100100001111010111 C
b000000000000000000000000000000000 E
b11110100001001100100001111010101 F
b11110100001001100100001111010111 H
b11110100001001100100001111010101 I
1K
1N
0P
1S
0T
1U
0W
1X
0Y
0Z
0\
0]
0d
0g
1i
1l
0}
0#"
0%"
0("
0*"
0-"
14"
17"
0>"
0A"
0M"
0P"
1W"
1Z"
0\"
0_"
0a"
0d"
1z"
1}"
1"#
1%#
11#
14#
06#
09#
1;#
1>#
0@#
0C#
0J#
0M#
1O#
1R#
0c#
0f#
0h#
0k#
0m#
0p#
1w#
1z#
0$$
0'$
03$
06$
1=$
1@$
0B$
0E$
0G$
0J$
1`$
1c$
1e$
1h$
#5500000000
0'
00
#6000000000
b10111110111101110011100010001100 !
b10100110000001011010001001011101 "
b00001100 $
b101111111101 %
1'
b10111110111101110011100010001100 (
b10111110111101110011100010001100 *
b10100110000001011010001001011101 +
b00001100 -
b101111111101 .
10
b10111110111101110011100010001100 1
b10111110111101110011100010001100 8
b10111110111101110011100010001110 9
b11110100001001100100001111010101 ;
b10111110111101110011100010001100 <
b10111110111101110011100010001100 B
b10111110111101110011100010001110 C
b10111110111101110011100010001100 F
b10111110111101110011100010001110 H
b10111110111101110011100010001100 I
0K
0N
1Z
1]
0_
0b
0i
0l
0s
0v
0x
0{
1%"
1("
1*"
1-"
1/"
12"
04"
07"
1>"
1A"
1R"
1U"
1\"
1_"
1a"
1d"
1k"
1n"
1u"
1x"
0'#
0*#
01#
04#
1@#
1C#
0E#
0H#
0O#
0R#
0Y#
0\#
0^#
0a#
1h#
1k#
1m#
1p#
1r#
1u#
0w#
0z#
1$$
1'$
18$
1;$
1B$
1E$
1G$
1J$
1Q$
1T$
1[$
1^$
0j$
0m$
#6500000000
0'
00
#7000000000
b11111010001010000101100111011001 !
b10001111010110100100000011011101 "
b01101110 $
b000010111101 %
1'
b11111010001010000101100111011001 (
b11111010001010000101100111011001 *
b10001111010110100100000011011101 +
b01101110 -
b000010111101 .
10
b11111010001010000101100111011001 1
b11111010001010000101100111011001 8
b11111010001010000101100111011011 9
b10111110111101110011100010001100 ;
b11111010001010000101100111011001 <
b11111010001010000101100111011001 B
b11111010001010000101100111011011 C
b11111010001010000101100111011001 F
b11111010001010000101100111011011 H
b11111010001010000101100111011001 I
1K
1N
0U
0X
1_
1b
1i
1l
1s
1v
0/"
02"
14"
17"
0>"
0A"
0C"
0F"
0H"
0K"
1M"
1P"
0R"
0U"
0\"
0_"
0a"
0d"
0p"
0s"
1'#
1*#
11#
14#
0;#
0>#
1E#
1H#
1O#
1R#
1Y#
1\#
0r#
0u#
1w#
1z#
0$$
0'$
0)$
0,$
0.$
01$
13$
16$
08$
0;$
0B$
0E$
0G$
0J$
0V$
0Y$
1j$
1m$
#7500000000
0'
00
#8000000000
b01011111111100110111011011010110 !
b01001101101010110011011101011100 "
b11001010 $
b001111101010 %
1'
b01011111111100110111011011010110 (
b01011111111100110111011011010110 *
b01001101101010110011011101011100 +
b11001010 -
b001111101010 .
10
b01011111111100110111011011010110 1
b01011111111100110111011011010110 8
b01011111111100110111011011011000 9
b11111010001010000101100111011001 ;
b01011111111100110111011011010110 <
b01011111111100110111011011010110 B
b01011111111100110111011011011000 C
b000000000000000000000000000001100 E
b01011111111100110111011011010110 F
b01011111111100110111011011011000 H
b01011111111100110111011011010110 I
0K
0N
1P
0S
1T
1U
1W
0X
1Y
0Z
1\
1]
0s
0v
1x
1{
1}
1#"
0%"
0("
1/"
12"
1>"
1A"
1C"
1F"
0M"
0P"
1R"
1U"
1\"
1_"
1a"
1d"
1f"
1i"
1p"
1s"
0"#
0%#
0,#
0/#
01#
04#
16#
19#
1;#
1>#
0@#
0C#
0Y#
0\#
1^#
1a#
1c#
1f#
0h#
0k#
1r#
1u#
1$$
1'$
1)$
1,$
03$
06$
18$
1;$
1B$
1E$
1G$
1J$
1L$
1O$
1V$
1Y$
0e$
0h$
0o$
0r$
#8500000000
0'
00
